UIUC/cs233/Exam/Exam2_2nd/m.vcd
$date
	Thu Dec 18 12:22:35 2014
$end
$version
	Icarus Verilog
$end
$timescale
	1s
$end
$scope module test $end
$var wire 32 ! PC [31:0] $end
$var reg 1 " clk $end
$var reg 1 # done $end
$var integer 32 $ i [31:0] $end
$var reg 1 % reset $end
$scope module m $end
$var wire 3 & ALUOp [2:0] $end
$var wire 1 ' ALUSrc $end
$var wire 1 ( BEQ $end
$var wire 32 ) B_data [31:0] $end
$var wire 1 * LWSIN $end
$var wire 1 + MemRead $end
$var wire 1 , MemToReg $end
$var wire 1 - MemWrite $end
$var wire 32 . PC [31:0] $end
$var wire 1 / PCSrc $end
$var wire 30 0 PC_plus4 [31:2] $end
$var wire 30 1 PC_plus8 [31:2] $end
$var wire 30 2 PC_target [31:2] $end
$var wire 1 3 RegDst $end
$var wire 1 4 RegWrite $end
$var wire 1 5 add8 $end
$var wire 32 6 alu_out_data [31:0] $end
$var wire 1 7 clk $end
$var wire 6 8 funct [5:0] $end
$var wire 32 9 imm [31:0] $end
$var wire 32 : inst [31:0] $end
$var wire 32 ; load_data [31:0] $end
$var wire 1 < negative $end
$var wire 30 = next_PC [31:2] $end
$var wire 30 > next_PC_TEMP [31:2] $end
$var wire 6 ? opcode [5:0] $end
$var wire 5 @ rd [4:0] $end
$var wire 32 A rd1_data [31:0] $end
$var wire 32 B rd2_data [31:0] $end
$var wire 1 C reset $end
$var wire 5 D rs [4:0] $end
$var wire 5 E rt [4:0] $end
$var wire 32 F wr_data [31:0] $end
$var wire 5 G wr_regnum [4:0] $end
$var wire 1 H zero $end
$scope module PC_reg $end
$var wire 1 7 clk $end
$var wire 30 I d [29:0] $end
$var wire 1 J enable $end
$var wire 1 C reset $end
$var reg 30 K q [29:0] $end
$upscope $end
$scope module next_PC_adder $end
$var wire 30 L in1 [29:0] $end
$var wire 30 M in2 [29:0] $end
$var wire 30 N out [29:0] $end
$upscope $end
$scope module next_PC_adder2 $end
$var wire 30 O in1 [29:0] $end
$var wire 30 P in2 [29:0] $end
$var wire 30 Q out [29:0] $end
$upscope $end
$scope module target_PC_adder $end
$var wire 30 R in1 [29:0] $end
$var wire 30 S in2 [29:0] $end
$var wire 30 T out [29:0] $end
$upscope $end
$scope module branch_mux $end
$var wire 30 U A [29:0] $end
$var wire 30 V B [29:0] $end
$var wire 30 W out [29:0] $end
$var wire 1 / sel $end
$var wire 30 X temp1 [29:0] $end
$var wire 30 Y temp2 [29:0] $end
$upscope $end
$scope module branch_mux2 $end
$var wire 30 Z A [29:0] $end
$var wire 30 [ B [29:0] $end
$var wire 30 \ out [29:0] $end
$var wire 1 5 sel $end
$var wire 30 ] temp1 [29:0] $end
$var wire 30 ^ temp2 [29:0] $end
$upscope $end
$scope module imem $end
$var wire 30 _ addr [29:0] $end
$var wire 32 ` data [31:0] $end
$var reg 32 a i [31:0] $end
$upscope $end
$scope module decode $end
$var wire 3 b ALUOp [2:0] $end
$var wire 1 ' ALUSrc $end
$var wire 1 c ALUSrcTemp $end
$var wire 1 ( BEQ $end
$var wire 1 * LWSIN $end
$var wire 1 + MemRead $end
$var wire 1 d MemReadTemp $end
$var wire 1 , MemToReg $end
$var wire 1 e MemToRegTemp $end
$var wire 1 - MemWrite $end
$var wire 1 3 RegDst $end
$var wire 1 f RegDstTemp $end
$var wire 1 4 RegWrite $end
$var wire 6 g funct [5:0] $end
$var wire 6 h opcode [5:0] $end
$scope module given $end
$var wire 3 i ALUOp [2:0] $end
$var wire 1 c ALUSrc $end
$var wire 1 ( BEQ $end
$var wire 1 d MemRead $end
$var wire 1 e MemToReg $end
$var wire 1 - MemWrite $end
$var wire 1 f RegDst $end
$var wire 1 4 RegWrite $end
$var wire 6 j funct [5:0] $end
$var wire 1 k nop $end
$var wire 1 l op0 $end
$var wire 6 m opcode [5:0] $end
$upscope $end
$scope module regMux $end
$var wire 1 f A $end
$var wire 1 n B $end
$var wire 1 3 out $end
$var wire 1 * sel $end
$var wire 1 o temp1 $end
$var wire 1 p temp2 $end
$upscope $end
$scope module ALUMux $end
$var wire 1 c A $end
$var wire 1 q B $end
$var wire 1 ' out $end
$var wire 1 * sel $end
$var wire 1 r temp1 $end
$var wire 1 s temp2 $end
$upscope $end
$scope module RegMux $end
$var wire 1 e A $end
$var wire 1 t B $end
$var wire 1 , out $end
$var wire 1 * sel $end
$var wire 1 u temp1 $end
$var wire 1 v temp2 $end
$upscope $end
$scope module ReadMux $end
$var wire 1 d A $end
$var wire 1 w B $end
$var wire 1 + out $end
$var wire 1 * sel $end
$var wire 1 x temp1 $end
$var wire 1 y temp2 $end
$upscope $end
$upscope $end
$scope module rf $end
$var wire 1 7 clock $end
$var wire 32 z internal_rdData [31:0] $end
$var wire 32 { rdData [31:0] $end
$var wire 5 | rdNum [4:0] $end
$var wire 1 4 rdWriteEnable $end
$var wire 1 C reset $end
$var wire 32 } rsData [31:0] $end
$var wire 5 ~ rsNum [4:0] $end
$var wire 32 !" rtData [31:0] $end
$var wire 5 "" rtNum [4:0] $end
$var integer 32 #" i [31:0] $end
$upscope $end
$scope module imm_mux $end
$var wire 32 $" A [31:0] $end
$var wire 32 %" B [31:0] $end
$var wire 32 &" out [31:0] $end
$var wire 1 ' sel $end
$var wire 32 '" temp1 [31:0] $end
$var wire 32 (" temp2 [31:0] $end
$upscope $end
$scope module alu $end
$var wire 3 )" control [2:0] $end
$var wire 32 *" inA [31:0] $end
$var wire 32 +" inB [31:0] $end
$var wire 1 < negative $end
$var wire 32 ," out [31:0] $end
$var wire 1 H zero $end
$upscope $end
$scope module data_memory $end
$var wire 32 -" addr [31:0] $end
$var wire 1 7 clk $end
$var wire 32 ." d_out [31:0] $end
$var wire 32 /" data_in [31:0] $end
$var wire 32 0" data_out [31:0] $end
$var wire 19 1" index [18:0] $end
$var wire 32 2" internal_data_in [31:0] $end
$var wire 1 + mem_read $end
$var wire 1 - mem_write $end
$var wire 1 C reset $end
$var wire 1 3" valid_address $end
$var integer 32 4" i [31:0] $end
$upscope $end
$scope module wb_mux $end
$var wire 32 5" A [31:0] $end
$var wire 32 6" B [31:0] $end
$var wire 32 7" out [31:0] $end
$var wire 1 , sel $end
$var wire 32 8" temp1 [31:0] $end
$var wire 32 9" temp2 [31:0] $end
$upscope $end
$scope module rd_mux $end
$var wire 5 :" A [4:0] $end
$var wire 5 ;" B [4:0] $end
$var wire 5 <" out [4:0] $end
$var wire 1 3 sel $end
$var wire 5 =" temp1 [4:0] $end
$var wire 5 >" temp2 [4:0] $end
$upscope $end
$upscope $end
$upscope $end
$scope module test $end
$scope module m $end
$scope module rf $end
$var reg 32 ?" \r[0] [31:0] $end
$upscope $end
$upscope $end
$upscope $end
$scope module test $end
$scope module m $end
$scope module rf $end
$var reg 32 @" \r[1] [31:0] $end
$upscope $end
$upscope $end
$upscope $end
$scope module test $end
$scope module m $end
$scope module rf $end
$var reg 32 A" \r[2] [31:0] $end
$upscope $end
$upscope $end
$upscope $end
$scope module test $end
$scope module m $end
$scope module rf $end
$var reg 32 B" \r[3] [31:0] $end
$upscope $end
$upscope $end
$upscope $end
$scope module test $end
$scope module m $end
$scope module rf $end
$var reg 32 C" \r[4] [31:0] $end
$upscope $end
$upscope $end
$upscope $end
$scope module test $end
$scope module m $end
$scope module rf $end
$var reg 32 D" \r[5] [31:0] $end
$upscope $end
$upscope $end
$upscope $end
$scope module test $end
$scope module m $end
$scope module rf $end
$var reg 32 E" \r[6] [31:0] $end
$upscope $end
$upscope $end
$upscope $end
$scope module test $end
$scope module m $end
$scope module rf $end
$var reg 32 F" \r[7] [31:0] $end
$upscope $end
$upscope $end
$upscope $end
$scope module test $end
$scope module m $end
$scope module rf $end
$var reg 32 G" \r[8] [31:0] $end
$upscope $end
$upscope $end
$upscope $end
$scope module test $end
$scope module m $end
$scope module rf $end
$var reg 32 H" \r[9] [31:0] $end
$upscope $end
$upscope $end
$upscope $end
$scope module test $end
$scope module m $end
$scope module rf $end
$var reg 32 I" \r[10] [31:0] $end
$upscope $end
$upscope $end
$upscope $end
$scope module test $end
$scope module m $end
$scope module rf $end
$var reg 32 J" \r[11] [31:0] $end
$upscope $end
$upscope $end
$upscope $end
$scope module test $end
$scope module m $end
$scope module rf $end
$var reg 32 K" \r[12] [31:0] $end
$upscope $end
$upscope $end
$upscope $end
$scope module test $end
$scope module m $end
$scope module rf $end
$var reg 32 L" \r[13] [31:0] $end
$upscope $end
$upscope $end
$upscope $end
$scope module test $end
$scope module m $end
$scope module rf $end
$var reg 32 M" \r[14] [31:0] $end
$upscope $end
$upscope $end
$upscope $end
$scope module test $end
$scope module m $end
$scope module rf $end
$var reg 32 N" \r[15] [31:0] $end
$upscope $end
$upscope $end
$upscope $end
$scope module test $end
$scope module m $end
$scope module rf $end
$var reg 32 O" \r[16] [31:0] $end
$upscope $end
$upscope $end
$upscope $end
$scope module test $end
$scope module m $end
$scope module rf $end
$var reg 32 P" \r[17] [31:0] $end
$upscope $end
$upscope $end
$upscope $end
$scope module test $end
$scope module m $end
$scope module rf $end
$var reg 32 Q" \r[18] [31:0] $end
$upscope $end
$upscope $end
$upscope $end
$scope module test $end
$scope module m $end
$scope module rf $end
$var reg 32 R" \r[19] [31:0] $end
$upscope $end
$upscope $end
$upscope $end
$scope module test $end
$scope module m $end
$scope module rf $end
$var reg 32 S" \r[20] [31:0] $end
$upscope $end
$upscope $end
$upscope $end
$scope module test $end
$scope module m $end
$scope module rf $end
$var reg 32 T" \r[21] [31:0] $end
$upscope $end
$upscope $end
$upscope $end
$scope module test $end
$scope module m $end
$scope module rf $end
$var reg 32 U" \r[22] [31:0] $end
$upscope $end
$upscope $end
$upscope $end
$scope module test $end
$scope module m $end
$scope module rf $end
$var reg 32 V" \r[23] [31:0] $end
$upscope $end
$upscope $end
$upscope $end
$scope module test $end
$scope module m $end
$scope module rf $end
$var reg 32 W" \r[24] [31:0] $end
$upscope $end
$upscope $end
$upscope $end
$scope module test $end
$scope module m $end
$scope module rf $end
$var reg 32 X" \r[25] [31:0] $end
$upscope $end
$upscope $end
$upscope $end
$scope module test $end
$scope module m $end
$scope module rf $end
$var reg 32 Y" \r[26] [31:0] $end
$upscope $end
$upscope $end
$upscope $end
$scope module test $end
$scope module m $end
$scope module rf $end
$var reg 32 Z" \r[27] [31:0] $end
$upscope $end
$upscope $end
$upscope $end
$scope module test $end
$scope module m $end
$scope module rf $end
$var reg 32 [" \r[28] [31:0] $end
$upscope $end
$upscope $end
$upscope $end
$scope module test $end
$scope module m $end
$scope module rf $end
$var reg 32 \" \r[29] [31:0] $end
$upscope $end
$upscope $end
$upscope $end
$scope module test $end
$scope module m $end
$scope module rf $end
$var reg 32 ]" \r[30] [31:0] $end
$upscope $end
$upscope $end
$upscope $end
$scope module test $end
$scope module m $end
$scope module rf $end
$var reg 32 ^" \r[31] [31:0] $end
$upscope $end
$upscope $end
$upscope $end
$enddefinitions $end
#0
$dumpvars
b10000000000010000000000000000 ^"
b10000000000010000000000000000 ]"
b10000000000010000000000000000 \"
b10000000000010000000000000000 ["
b10000000000010000000000000000 Z"
b10000000000010000000000000000 Y"
b10000000000010000000000000000 X"
b10000000000010000000000000000 W"
b10000000000010000000000000000 V"
b10000000000010000000000000000 U"
b10000000000010000000000000000 T"
b10000000000010000000000000000 S"
b10000000000010000000000000000 R"
b10000000000010000000000000000 Q"
b10000000000010000000000000000 P"
b10000000000010000000000000000 O"
b10000000000010000000000000000 N"
b10000000000010000000000000000 M"
b10000000000010000000000000000 L"
b10000000000010000000000000000 K"
b10000000000010000000000000000 J"
b10000000000010000000000000000 I"
b10000000000010000000000000000 H"
b10000000000010000000000000000 G"
b10000000000010000000000000000 F"
b10000000000010000000000000000 E"
b10000000000010000000000000000 D"
b10000000000010000000000000000 C"
b10000000000010000000000000000 B"
b10000000000010000000000000000 A"
b10000000000010000000000000000 @"
b0 ?"
bx >"
bx ="
bx <"
bx ;"
bx :"
bx 9"
bx 8"
bx 7"
bx 6"
bx 5"
b1000000000000000000 4"
x3"
bx 2"
bx 1"
bx 0"
bx /"
bx ."
bx -"
bx ,"
bx +"
bx *"
bx )"
bx ("
bx '"
bx &"
bx %"
bx $"
b100000 #"
bx ""
bx !"
bx ~
bx }
bx |
bx {
bx z
xy
xx
1w
xv
xu
1t
xs
xr
1q
0p
xo
0n
bx m
xl
xk
bx j
bx i
bx h
bx g
xf
xe
xd
xc
bx b
b100000000 a
bx `
bx _
bx ^
bx ]
bx \
bx [
bx Z
bx Y
bx X
bx W
bx V
bx U
bx T
bx S
bx R
bx Q
b10 P
bx O
bx N
b1 M
bx L
bx K
1J
bx I
xH
bx G
bx F
bx E
bx D
1C
bx B
bx A
bx @
bx ?
bx >
bx =
x<
bx ;
bx :
bx 9
bx 8
07
bx 6
x5
x4
x3
bx 2
bx 1
bx 0
x/
bx00 .
x-
x,
x+
x*
bx )
x(
x'
bx &
1%
b100000 $
0#
0"
bx00 !
$end
#6
b10101 z
b10101 F
b10101 {
b10101 7"
b10101 9"
b10101 ;
b10101 0"
b10101 6"
b10101 ."
13"
0H
b100000000000000 1"
0<
b10000000000010000000000000000 6
b10000000000010000000000000000 ,"
b10000000000010000000000000000 -"
b10000000000010000000000000000 5"
b0 &
b0 b
b0 i
b0 )"
b100000000000000000001 =
b100000000000000000001 I
b100000000000000000001 \
b100000000000000000001 ]
b0 8"
14
b100000000000000000001 >
b100000000000000000001 W
b100000000000000000001 Z
03
1'
1+
1,
b10 G
b10 |
b10 <"
b0 Y
b0 )
b0 &"
b0 +"
0o
1r
0s
0v
0y
05
0/
1x
0f
1u
1c
0k
b0 >"
b0 '"
b10 ="
b0 S
b100000000000000000001 2
b100000000000000000001 T
b100000000000000000001 V
b0 ("
b0 8
b0 g
b0 j
0*
0(
1e
1d
0-
0l
b100011 ?
b100011 h
b100011 m
b0 @
b0 ;"
b10000000000010000000000000000 2"
b10000000000010000000000000000 B
b10000000000010000000000000000 !"
b10000000000010000000000000000 $"
b10000000000010000000000000000 /"
b10 E
b10 ""
b10 :"
b10000000000010000000000000000 A
b10000000000010000000000000000 }
b10000000000010000000000000000 *"
b10100 D
b10100 ~
b0 9
b0 %"
b100000000000000000001 X
b0 ^
b10001110100000100000000000000000 :
b10001110100000100000000000000000 `
b100000000000000000000 L
b100000000000000000001 0
b100000000000000000001 N
b100000000000000000001 R
b100000000000000000001 U
b100000000000000000000 O
b100000000000000000010 1
b100000000000000000010 Q
b100000000000000000010 [
b100000000000000000000 _
b100000000000000000000 K
b10000000000000000000000 .
b10000000000000000000000 !
1"
17
#7
0%
0C
#12
0"
07
#18
b111001110 z
b111001110 F
b111001110 {
b111001110 7"
b111001110 9"
b111001110 ;
b111001110 0"
b111001110 6"
b111001110 ."
b100000000000001 1"
b10000000000010000000000000100 6
b10000000000010000000000000100 ,"
b10000000000010000000000000100 -"
b10000000000010000000000000100 5"
b100000000000000000010 =
b100000000000000000010 I
b100000000000000000010 \
b11 G
b11 |
b11 <"
b100 )
b100 &"
b100 +"
b100000000000000000010 ]
0r
1s
1v
1y
0x
1f
0u
0c
b11 ="
b100 S
b100 ("
b100000000000000000010 >
b100000000000000000010 W
b100000000000000000010 Z
b100 8
b100 g
b100 j
1*
0e
0d
b111011 ?
b111011 h
b111011 m
b11 E
b11 ""
b11 :"
b100 9
b100 %"
b100000000000000000010 X
b11101110100000110000000000000100 :
b11101110100000110000000000000100 `
b100000000000000000001 L
b100000000000000000110 2
b100000000000000000110 T
b100000000000000000110 V
b100000000000000000010 0
b100000000000000000010 N
b100000000000000000010 R
b100000000000000000010 U
b100000000000000000001 O
b100000000000000000011 1
b100000000000000000011 Q
b100000000000000000011 [
b100000000000000000001 _
b10101 A"
b10000000000010000000000000000 2"
b10000000000010000000000000000 B
b10000000000010000000000000000 !"
b10000000000010000000000000000 $"
b10000000000010000000000000000 /"
b100000000000000000001 K
b10000000000000000000100 .
b10000000000000000000100 !
1"
17
#24
0"
07
#30
b11011110101011011011111011101111 ."
b1010 1"
b101010 z
b101010 F
b101010 {
b101010 7"
03"
b1101 >"
b10101 '"
b101010 8"
b0 9"
b0 ;
b0 0"
b0 6"
b101010 6
b101010 ,"
b101010 -"
b101010 5"
b100000000000000000011 =
b100000000000000000011 I
b100000000000000000011 \
13
0'
0,
0+
b1101 G
b1101 |
b1101 <"
b10101 )
b10101 &"
b10101 +"
b100000000000000000011 ]
1o
0s
0v
0y
b0 ="
b110100000100000 S
b0 ("
b100000000000000000011 >
b100000000000000000011 W
b100000000000000000011 Z
b100000 8
b100000 g
b100000 j
0*
1l
b0 ?
b0 h
b0 m
b1101 @
b1101 ;"
b10 E
b10 ""
b10 :"
b10101 A
b10101 }
b10101 *"
b10 D
b10 ~
b110100000100000 9
b110100000100000 %"
b100000000000000000011 X
b10000100110100000100000 :
b10000100110100000100000 `
b100000000000000000010 L
b100000110100000100011 2
b100000110100000100011 T
b100000110100000100011 V
b100000000000000000011 0
b100000000000000000011 N
b100000000000000000011 R
b100000000000000000011 U
b100000000000000000010 O
b100000000000000000100 1
b100000000000000000100 Q
b100000000000000000100 [
b100000000000000000010 _
b100000000000000000010 K
b10000000000000000001000 .
b10000000000000000001000 !
b111001110 B"
b10101 2"
b10101 B
b10101 !"
b10101 $"
b10101 /"
1"
17
#36
0"
07
#42
b11111111111111111111111011101111 ."
b100000000000000000101 ^
15
b100000000000010 1"
b11111111111111111111111011101111 z
b11111111111111111111111011101111 F
b11111111111111111111111011101111 {
b11111111111111111111111011101111 7"
13"
b100 ="
b1000 ("
b0 8"
b11111111111111111111111011101111 9"
b11111111111111111111111011101111 ;
b11111111111111111111111011101111 0"
b11111111111111111111111011101111 6"
b10000000000010000000000001000 6
b10000000000010000000000001000 ,"
b10000000000010000000000001000 -"
b10000000000010000000000001000 5"
b100000000000000000101 =
b100000000000000000101 I
b100000000000000000101 \
03
1'
1,
1+
b100 G
b100 |
b100 <"
b1000 )
b1000 &"
b1000 +"
b0 ]
0o
1s
1v
1y
b0 >"
b0 '"
b1000 S
b100000000000000000100 >
b100000000000000000100 W
b100000000000000000100 Z
b1000 8
b1000 g
b1000 j
1*
0l
b111011 ?
b111011 h
b111011 m
b0 @
b0 ;"
b10000000000010000000000000000 2"
b10000000000010000000000000000 B
b10000000000010000000000000000 !"
b10000000000010000000000000000 $"
b10000000000010000000000000000 /"
b100 E
b100 ""
b100 :"
b10000000000010000000000000000 A
b10000000000010000000000000000 }
b10000000000010000000000000000 *"
b10100 D
b10100 ~
b1000 9
b1000 %"
b100000000000000000100 X
b11101110100001000000000000001000 :
b11101110100001000000000000001000 `
b100000000000000000011 L
b100000000000000001100 2
b100000000000000001100 T
b100000000000000001100 V
b100000000000000000100 0
b100000000000000000100 N
b100000000000000000100 R
b100000000000000000100 U
b100000000000000000011 O
b100000000000000000101 1
b100000000000000000101 Q
b100000000000000000101 [
b100000000000000000011 _
b101010 L"
b100000000000000000011 K
b10000000000000000001100 .
b10000000000000000001100 !
1"
17
#48
0"
07
#54
b100000000000000000110 ]
b0 z
b0 F
b0 {
b0 7"
05
b0 9"
b0 ;
b0 0"
b0 6"
b0 ."
b100000000000011 1"
b10000000000010000000000001100 6
b10000000000010000000000001100 ,"
b10000000000010000000000001100 -"
b10000000000010000000000001100 5"
b101 G
b101 |
b101 <"
b1100 )
b1100 &"
b1100 +"
b101 ="
b1100 S
b1100 ("
b100000000000000000110 >
b100000000000000000110 W
b100000000000000000110 Z
b100000000000000000110 =
b100000000000000000110 I
b100000000000000000110 \
b1100 8
b1100 g
b1100 j
b101 E
b101 ""
b101 :"
b1100 9
b1100 %"
b100000000000000000110 X
b0 ^
b11101110100001010000000000001100 :
b11101110100001010000000000001100 `
b100000000000000000101 L
b100000000000000010010 2
b100000000000000010010 T
b100000000000000010010 V
b100000000000000000110 0
b100000000000000000110 N
b100000000000000000110 R
b100000000000000000110 U
b100000000000000000101 O
b100000000000000000111 1
b100000000000000000111 Q
b100000000000000000111 [
b100000000000000000101 _
b100000000000000000101 K
b10000000000000000010100 .
b10000000000000000010100 !
b11111111111111111111111011101111 C"
b10000000000010000000000000000 2"
b10000000000010000000000000000 B
b10000000000010000000000000000 !"
b10000000000010000000000000000 $"
b10000000000010000000000000000 /"
1"
17
#60
0"
07
#66
b11011110101011011011111011101111 ."
b1010 1"
b101010 z
b101010 F
b101010 {
b101010 7"
03"
b1111 >"
b10101 '"
b101010 8"
b101010 6
b101010 ,"
b101010 -"
b101010 5"
b100000000000000000111 =
b100000000000000000111 I
b100000000000000000111 \
13
0'
0,
0+
b1111 G
b1111 |
b1111 <"
b10101 )
b10101 &"
b10101 +"
b100000000000000000111 ]
1o
0s
0v
0y
b0 ="
b111100000100000 S
b0 ("
b100000000000000000111 >
b100000000000000000111 W
b100000000000000000111 Z
b100000 8
b100000 g
b100000 j
0*
1l
b0 ?
b0 h
b0 m
b1111 @
b1111 ;"
b10 E
b10 ""
b10 :"
b10101 A
b10101 }
b10101 *"
b10 D
b10 ~
b111100000100000 9
b111100000100000 %"
b100000000000000000111 X
b10000100111100000100000 :
b10000100111100000100000 `
b100000000000000000110 L
b100000111100000100111 2
b100000111100000100111 T
b100000111100000100111 V
b100000000000000000111 0
b100000000000000000111 N
b100000000000000000111 R
b100000000000000000111 U
b100000000000000000110 O
b100000000000000001000 1
b100000000000000001000 Q
b100000000000000001000 [
b100000000000000000110 _
b0 D"
b10101 2"
b10101 B
b10101 !"
b10101 $"
b10101 /"
b100000000000000000110 K
b10000000000000000011000 .
b10000000000000000011000 !
1"
17
#72
0"
07
#78
1H
b0 1"
b0 z
b0 F
b0 {
b0 7"
b0 8"
04
b0 6
b0 ,"
b0 -"
b0 5"
b100000000000000001000 =
b100000000000000001000 I
b100000000000000001000 \
b0 G
b0 |
b0 <"
b0 )
b0 &"
b0 +"
b100000000000000001000 ]
1k
b0 >"
b0 '"
b0 S
b100000000000000001000 >
b100000000000000001000 W
b100000000000000001000 Z
b0 8
b0 g
b0 j
b0 @
b0 ;"
b0 2"
b0 B
b0 !"
b0 $"
b0 /"
b0 E
b0 ""
b0 :"
b0 A
b0 }
b0 *"
b0 D
b0 ~
b0 9
b0 %"
b100000000000000001000 X
b0 :
b0 `
b100000000000000000111 L
b100000000000000001000 2
b100000000000000001000 T
b100000000000000001000 V
b100000000000000001000 0
b100000000000000001000 N
b100000000000000001000 R
b100000000000000001000 U
b100000000000000000111 O
b100000000000000001001 1
b100000000000000001001 Q
b100000000000000001001 [
b100000000000000000111 _
b100000000000000000111 K
b10000000000000000011100 .
b10000000000000000011100 !
b101010 N"
1"
17
#84
0"
07
#90
b100000000000000001001 =
b100000000000000001001 I
b100000000000000001001 \
b100000000000000001001 ]
b100000000000000001001 >
b100000000000000001001 W
b100000000000000001001 Z
b100000000000000001001 X
b100000000000000001000 L
b100000000000000001001 2
b100000000000000001001 T
b100000000000000001001 V
b100000000000000001001 0
b100000000000000001001 N
b100000000000000001001 R
b100000000000000001001 U
b100000000000000001000 O
b100000000000000001010 1
b100000000000000001010 Q
b100000000000000001010 [
b100000000000000001000 _
b100000000000000001000 K
b10000000000000000100000 .
b10000000000000000100000 !
1"
17
#96
0"
07
#102
b100000000000000001010 =
b100000000000000001010 I
b100000000000000001010 \
b100000000000000001010 ]
b100000000000000001010 >
b100000000000000001010 W
b100000000000000001010 Z
b100000000000000001010 X
b100000000000000001001 L
b100000000000000001010 2
b100000000000000001010 T
b100000000000000001010 V
b100000000000000001010 0
b100000000000000001010 N
b100000000000000001010 R
b100000000000000001010 U
b100000000000000001001 O
b100000000000000001011 1
b100000000000000001011 Q
b100000000000000001011 [
b100000000000000001001 _
b100000000000000001001 K
b10000000000000000100100 .
b10000000000000000100100 !
1"
17
#108
0"
07
#114
b100000000000000001011 =
b100000000000000001011 I
b100000000000000001011 \
b100000000000000001011 ]
b100000000000000001011 >
b100000000000000001011 W
b100000000000000001011 Z
b100000000000000001011 X
b100000000000000001010 L
b100000000000000001011 2
b100000000000000001011 T
b100000000000000001011 V
b100000000000000001011 0
b100000000000000001011 N
b100000000000000001011 R
b100000000000000001011 U
b100000000000000001010 O
b100000000000000001100 1
b100000000000000001100 Q
b100000000000000001100 [
b100000000000000001010 _
b100000000000000001010 K
b10000000000000000101000 .
b10000000000000000101000 !
1"
17
#120
0"
07
#126
b100000000000000001100 =
b100000000000000001100 I
b100000000000000001100 \
b100000000000000001100 ]
b100000000000000001100 >
b100000000000000001100 W
b100000000000000001100 Z
b100000000000000001100 X
b100000000000000001011 L
b100000000000000001100 2
b100000000000000001100 T
b100000000000000001100 V
b100000000000000001100 0
b100000000000000001100 N
b100000000000000001100 R
b100000000000000001100 U
b100000000000000001011 O
b100000000000000001101 1
b100000000000000001101 Q
b100000000000000001101 [
b100000000000000001011 _
b100000000000000001011 K
b10000000000000000101100 .
b10000000000000000101100 !
1"
17
#132
0"
07
#138
b100000000000000001101 =
b100000000000000001101 I
b100000000000000001101 \
b100000000000000001101 ]
b100000000000000001101 >
b100000000000000001101 W
b100000000000000001101 Z
b100000000000000001101 X
b100000000000000001100 L
b100000000000000001101 2
b100000000000000001101 T
b100000000000000001101 V
b100000000000000001101 0
b100000000000000001101 N
b100000000000000001101 R
b100000000000000001101 U
b100000000000000001100 O
b100000000000000001110 1
b100000000000000001110 Q
b100000000000000001110 [
b100000000000000001100 _
b100000000000000001100 K
b10000000000000000110000 .
b10000000000000000110000 !
1"
17
#144
0"
07
#150
b100000000000000001110 =
b100000000000000001110 I
b100000000000000001110 \
b100000000000000001110 ]
b100000000000000001110 >
b100000000000000001110 W
b100000000000000001110 Z
b100000000000000001110 X
b100000000000000001101 L
b100000000000000001110 2
b100000000000000001110 T
b100000000000000001110 V
b100000000000000001110 0
b100000000000000001110 N
b100000000000000001110 R
b100000000000000001110 U
b100000000000000001101 O
b100000000000000001111 1
b100000000000000001111 Q
b100000000000000001111 [
b100000000000000001101 _
b100000000000000001101 K
b10000000000000000110100 .
b10000000000000000110100 !
1"
17
#156
0"
07
#162
b100000000000000001111 =
b100000000000000001111 I
b100000000000000001111 \
b100000000000000001111 ]
b100000000000000001111 >
b100000000000000001111 W
b100000000000000001111 Z
b100000000000000001111 X
b100000000000000001110 L
b100000000000000001111 2
b100000000000000001111 T
b100000000000000001111 V
b100000000000000001111 0
b100000000000000001111 N
b100000000000000001111 R
b100000000000000001111 U
b100000000000000001110 O
b100000000000000010000 1
b100000000000000010000 Q
b100000000000000010000 [
b100000000000000001110 _
b100000000000000001110 K
b10000000000000000111000 .
b10000000000000000111000 !
1"
17
#168
0"
07
#174
b100000000000000010000 =
b100000000000000010000 I
b100000000000000010000 \
b100000000000000010000 ]
b100000000000000010000 >
b100000000000000010000 W
b100000000000000010000 Z
b100000000000000010000 X
b100000000000000001111 L
b100000000000000010000 2
b100000000000000010000 T
b100000000000000010000 V
b100000000000000010000 0
b100000000000000010000 N
b100000000000000010000 R
b100000000000000010000 U
b100000000000000001111 O
b100000000000000010001 1
b100000000000000010001 Q
b100000000000000010001 [
b100000000000000001111 _
b100000000000000001111 K
b10000000000000000111100 .
b10000000000000000111100 !
1"
17
#180
0"
07
#186
b100000000000000010001 =
b100000000000000010001 I
b100000000000000010001 \
b100000000000000010001 ]
b100000000000000010001 >
b100000000000000010001 W
b100000000000000010001 Z
b100000000000000010001 X
b100000000000000010000 L
b100000000000000010001 2
b100000000000000010001 T
b100000000000000010001 V
b100000000000000010001 0
b100000000000000010001 N
b100000000000000010001 R
b100000000000000010001 U
b100000000000000010000 O
b100000000000000010010 1
b100000000000000010010 Q
b100000000000000010010 [
b100000000000000010000 _
b100000000000000010000 K
b10000000000000001000000 .
b10000000000000001000000 !
1"
17
#192
0"
07
#198
b100000000000000010010 =
b100000000000000010010 I
b100000000000000010010 \
b100000000000000010010 ]
b100000000000000010010 >
b100000000000000010010 W
b100000000000000010010 Z
b100000000000000010010 X
b100000000000000010001 L
b100000000000000010010 2
b100000000000000010010 T
b100000000000000010010 V
b100000000000000010010 0
b100000000000000010010 N
b100000000000000010010 R
b100000000000000010010 U
b100000000000000010001 O
b100000000000000010011 1
b100000000000000010011 Q
b100000000000000010011 [
b100000000000000010001 _
b100000000000000010001 K
b10000000000000001000100 .
b10000000000000001000100 !
1"
17
#204
0"
07
#210
b100000000000000010011 =
b100000000000000010011 I
b100000000000000010011 \
b100000000000000010011 ]
b100000000000000010011 >
b100000000000000010011 W
b100000000000000010011 Z
b100000000000000010011 X
b100000000000000010010 L
b100000000000000010011 2
b100000000000000010011 T
b100000000000000010011 V
b100000000000000010011 0
b100000000000000010011 N
b100000000000000010011 R
b100000000000000010011 U
b100000000000000010010 O
b100000000000000010100 1
b100000000000000010100 Q
b100000000000000010100 [
b100000000000000010010 _
b100000000000000010010 K
b10000000000000001001000 .
b10000000000000001001000 !
1"
17
#216
0"
07
#222
b100000000000000010100 =
b100000000000000010100 I
b100000000000000010100 \
b100000000000000010100 ]
b100000000000000010100 >
b100000000000000010100 W
b100000000000000010100 Z
b100000000000000010100 X
b100000000000000010011 L
b100000000000000010100 2
b100000000000000010100 T
b100000000000000010100 V
b100000000000000010100 0
b100000000000000010100 N
b100000000000000010100 R
b100000000000000010100 U
b100000000000000010011 O
b100000000000000010101 1
b100000000000000010101 Q
b100000000000000010101 [
b100000000000000010011 _
b100000000000000010011 K
b10000000000000001001100 .
b10000000000000001001100 !
1"
17
#228
0"
07
